<?xml version="1.0" encoding="UTF-8"?>
<Project>
   <description></description>
   <name>HioPosCloud_memu</name>
   <tag></tag>
   <UUID>6cc98b8d-80e7-4efe-8a97-602058944a0d</UUID>
   <migratedVersion>5.9.0</migratedVersion>
   <pageLoadTimeout>0</pageLoadTimeout>
   <projectFileLocation>C:\katalon shared projects\HioPosCloud_memu\HioPosCloud_memu.prj</projectFileLocation>
   <sourceContent>
      <sourceFolderList>
         <sourceFolderConfiguration>
            <url>Include/scripts/groovy</url>
         </sourceFolderConfiguration>
      </sourceFolderList>
      <systemFolderList>
         <systemFolderConfiguration>
            <url>Include/scripts/groovy</url>
         </systemFolderConfiguration>
         <systemFolderConfiguration>
            <url>Include/features</url>
         </systemFolderConfiguration>
         <systemFolderConfiguration>
            <url>Include/config</url>
         </systemFolderConfiguration>
      </systemFolderList>
   </sourceContent>
   <type>MOBILE</type>
</Project>
